%!PS-Adobe-3.0 EPSF-3.0
%%CreationDate: Mon Jun  1 22:16:51 2015
%%LanguageLevel: 3
%%BoundingBox: 0 0 512 512
%%EndComments
newpath
0.00 512.00 moveto
512.00 512.00 lineto
512.00 0.00 lineto
0.00 0.00 lineto
0.00 512.00 lineto
closepath
1.000 1.000 1.000 setrgbcolor
fill
newpath
390.65 471.27 moveto
393.91 472.37 397.21 473.38 400.60 473.99 curveto
400.74 458.99 400.61 443.98 400.64 428.98 curveto
400.64 415.72 400.63 402.46 400.65 389.19 curveto
400.62 319.68 400.67 250.16 400.63 180.64 curveto
354.17 165.96 307.69 151.36 261.23 136.70 curveto
259.90 136.24 258.59 135.74 257.29 135.20 curveto
255.10 138.74 256.20 143.07 255.98 146.99 curveto
256.04 240.97 255.97 334.96 256.02 428.95 curveto
300.86 443.17 345.79 457.10 390.65 471.27 curveto
closepath
0.937 0.937 0.937 setrgbcolor
fill
newpath
52.80 428.97 moveto
120.54 429.02 188.28 429.04 256.02 428.95 curveto
255.97 334.96 256.04 240.97 255.98 146.99 curveto
256.20 143.07 255.10 138.74 257.29 135.20 curveto
257.04 135.11 256.56 134.92 256.31 134.83 curveto
255.27 134.56 254.19 134.42 253.11 134.39 curveto
186.35 134.42 119.58 134.38 52.82 134.40 curveto
52.69 225.44 52.82 316.48 52.75 407.51 curveto
52.80 414.66 52.71 421.82 52.80 428.97 curveto
closepath
0.827 0.835 0.839 setrgbcolor
fill
newpath
400.64 428.98 moveto
414.29 429.01 427.94 429.02 441.58 428.98 curveto
441.59 421.78 441.57 414.59 441.59 407.40 curveto
441.60 390.41 441.54 373.42 441.62 356.44 curveto
427.97 367.36 414.30 378.27 400.65 389.19 curveto
400.63 402.46 400.64 415.72 400.64 428.98 curveto
closepath
0.698 0.698 0.698 setrgbcolor
fill
newpath
39.37 397.54 moveto
42.05 402.70 47.29 405.96 52.75 407.51 curveto
52.82 316.48 52.69 225.44 52.82 134.40 curveto
119.58 134.38 186.35 134.42 253.11 134.39 curveto
254.19 134.42 255.27 134.56 256.31 134.83 curveto
269.24 125.78 282.09 116.60 295.06 107.60 curveto
218.37 107.60 141.68 107.60 64.99 107.60 curveto
60.32 107.62 55.51 107.29 51.00 108.78 curveto
45.36 110.49 40.42 114.73 38.36 120.32 curveto
37.14 123.76 37.52 127.46 37.46 131.04 curveto
37.48 215.36 37.47 299.68 37.47 384.00 curveto
37.52 388.54 36.95 393.44 39.37 397.54 curveto
closepath
0.188 0.471 0.941 setrgbcolor
fill
newpath
441.59 407.40 moveto
448.99 405.24 455.98 399.14 456.24 390.97 curveto
456.45 375.49 456.09 359.99 456.43 344.51 curveto
451.56 348.57 446.55 352.45 441.62 356.44 curveto
441.54 373.42 441.60 390.41 441.59 407.40 curveto
closepath
0.188 0.471 0.941 setrgbcolor
fill
newpath
98.48 402.97 moveto
102.04 403.01 105.60 403.01 109.17 402.99 curveto
119.22 378.51 129.24 354.01 139.25 329.51 curveto
135.45 329.49 131.65 329.49 127.85 329.51 curveto
125.03 336.84 122.22 344.16 119.40 351.49 curveto
109.24 351.50 99.08 351.50 88.92 351.49 curveto
86.22 344.18 83.61 336.83 80.93 329.51 curveto
77.37 329.48 73.81 329.49 70.25 329.53 curveto
79.73 353.98 89.08 378.49 98.48 402.97 curveto
closepath
0.416 0.416 0.416 setrgbcolor
fill
newpath
154.41 389.21 moveto
154.40 393.54 154.39 397.87 154.43 402.19 curveto
181.54 402.18 208.65 402.25 235.76 402.16 curveto
235.77 397.84 235.77 393.53 235.76 389.21 curveto
208.64 389.20 181.53 389.19 154.41 389.21 curveto
closepath
0.416 0.416 0.416 setrgbcolor
fill
newpath
103.65 394.54 moveto
107.17 382.72 112.08 371.37 116.22 359.77 curveto
108.10 359.75 99.99 359.74 91.88 359.77 curveto
95.87 371.33 101.18 382.50 103.65 394.54 curveto
closepath
0.827 0.835 0.839 setrgbcolor
fill
newpath
400.65 389.19 moveto
414.30 378.27 427.97 367.36 441.62 356.44 curveto
446.55 352.45 451.56 348.57 456.43 344.51 curveto
456.58 272.01 456.43 199.50 456.50 127.00 curveto
456.55 122.82 455.44 118.52 452.73 115.26 curveto
448.59 109.91 441.65 107.54 435.08 107.38 curveto
389.02 107.36 342.96 107.42 296.90 107.35 curveto
296.44 107.41 295.52 107.54 295.06 107.60 curveto
282.09 116.60 269.24 125.78 256.31 134.83 curveto
256.56 134.92 257.04 135.11 257.29 135.20 curveto
258.59 135.74 259.90 136.24 261.23 136.70 curveto
307.69 151.36 354.17 165.96 400.63 180.64 curveto
400.67 250.16 400.62 319.68 400.65 389.19 curveto
closepath
0.486 0.490 0.498 setrgbcolor
fill
newpath
154.42 373.59 moveto
181.59 373.61 208.76 373.60 235.93 373.60 curveto
235.95 369.20 235.95 364.80 235.93 360.40 curveto
208.76 360.40 181.59 360.39 154.42 360.41 curveto
154.40 364.80 154.40 369.20 154.42 373.59 curveto
closepath
0.416 0.416 0.416 setrgbcolor
fill
newpath
154.42 344.59 moveto
181.59 344.61 208.76 344.60 235.93 344.60 curveto
235.95 340.27 235.95 335.94 235.94 331.61 curveto
208.77 331.59 181.60 331.60 154.43 331.60 curveto
154.39 335.93 154.40 340.26 154.42 344.59 curveto
closepath
0.416 0.416 0.416 setrgbcolor
fill
newpath
69.83 315.79 moveto
125.20 315.81 180.57 315.80 235.93 315.80 curveto
235.95 311.40 235.95 307.00 235.94 302.61 curveto
180.57 302.60 125.20 302.59 69.83 302.61 curveto
69.81 307.01 69.81 311.40 69.83 315.79 curveto
closepath
0.416 0.416 0.416 setrgbcolor
fill
newpath
69.83 286.99 moveto
125.20 287.01 180.57 287.00 235.94 286.99 curveto
235.95 282.60 235.95 278.21 235.93 273.81 curveto
180.57 273.79 125.20 273.79 69.83 273.81 curveto
69.81 278.21 69.81 282.60 69.83 286.99 curveto
closepath
0.416 0.416 0.416 setrgbcolor
fill
newpath
69.83 257.99 moveto
125.20 258.01 180.57 258.00 235.94 257.99 curveto
235.95 253.66 235.95 249.34 235.94 245.01 curveto
180.57 245.00 125.20 244.99 69.83 245.01 curveto
69.81 249.34 69.82 253.66 69.83 257.99 curveto
closepath
0.416 0.416 0.416 setrgbcolor
fill
newpath
69.83 229.19 moveto
125.20 229.21 180.57 229.21 235.93 229.19 curveto
235.95 224.80 235.95 220.40 235.94 216.01 curveto
180.57 216.00 125.20 215.99 69.83 216.01 curveto
69.81 220.40 69.81 224.80 69.83 229.19 curveto
closepath
0.416 0.416 0.416 setrgbcolor
fill
newpath
69.83 200.19 moveto
125.20 200.21 180.57 200.20 235.93 200.19 curveto
235.95 195.86 235.95 191.53 235.93 187.20 curveto
180.56 187.20 125.20 187.19 69.83 187.21 curveto
69.82 191.54 69.81 195.86 69.83 200.19 curveto
closepath
0.416 0.416 0.416 setrgbcolor
fill
%%EOF
