%!PS-Adobe-3.0 EPSF-3.0
%%BoundingBox: 0 0 200 200
1 1 1 setrgbcolor
0 200 moveto
0 -200 rlineto 200 0 rlineto 0 200 rlineto closepath
fill
0 0 0 setrgbcolor
17 183 moveto
0 -5 rlineto 5 0 rlineto 0 5 rlineto closepath
fill
22 183 moveto
0 -5 rlineto 5 0 rlineto 0 5 rlineto closepath
fill
27 183 moveto
0 -5 rlineto 5 0 rlineto 0 5 rlineto closepath
fill
32 183 moveto
0 -5 rlineto 5 0 rlineto 0 5 rlineto closepath
fill
37 183 moveto
0 -5 rlineto 5 0 rlineto 0 5 rlineto closepath
fill
42 183 moveto
0 -5 rlineto 5 0 rlineto 0 5 rlineto closepath
fill
47 183 moveto
0 -5 rlineto 5 0 rlineto 0 5 rlineto closepath
fill
62 183 moveto
0 -5 rlineto 5 0 rlineto 0 5 rlineto closepath
fill
82 183 moveto
0 -5 rlineto 5 0 rlineto 0 5 rlineto closepath
fill
97 183 moveto
0 -5 rlineto 5 0 rlineto 0 5 rlineto closepath
fill
102 183 moveto
0 -5 rlineto 5 0 rlineto 0 5 rlineto closepath
fill
107 183 moveto
0 -5 rlineto 5 0 rlineto 0 5 rlineto closepath
fill
112 183 moveto
0 -5 rlineto 5 0 rlineto 0 5 rlineto closepath
fill
117 183 moveto
0 -5 rlineto 5 0 rlineto 0 5 rlineto closepath
fill
122 183 moveto
0 -5 rlineto 5 0 rlineto 0 5 rlineto closepath
fill
127 183 moveto
0 -5 rlineto 5 0 rlineto 0 5 rlineto closepath
fill
132 183 moveto
0 -5 rlineto 5 0 rlineto 0 5 rlineto closepath
fill
147 183 moveto
0 -5 rlineto 5 0 rlineto 0 5 rlineto closepath
fill
152 183 moveto
0 -5 rlineto 5 0 rlineto 0 5 rlineto closepath
fill
157 183 moveto
0 -5 rlineto 5 0 rlineto 0 5 rlineto closepath
fill
162 183 moveto
0 -5 rlineto 5 0 rlineto 0 5 rlineto closepath
fill
167 183 moveto
0 -5 rlineto 5 0 rlineto 0 5 rlineto closepath
fill
172 183 moveto
0 -5 rlineto 5 0 rlineto 0 5 rlineto closepath
fill
177 183 moveto
0 -5 rlineto 5 0 rlineto 0 5 rlineto closepath
fill
17 178 moveto
0 -5 rlineto 5 0 rlineto 0 5 rlineto closepath
fill
47 178 moveto
0 -5 rlineto 5 0 rlineto 0 5 rlineto closepath
fill
57 178 moveto
0 -5 rlineto 5 0 rlineto 0 5 rlineto closepath
fill
62 178 moveto
0 -5 rlineto 5 0 rlineto 0 5 rlineto closepath
fill
72 178 moveto
0 -5 rlineto 5 0 rlineto 0 5 rlineto closepath
fill
77 178 moveto
0 -5 rlineto 5 0 rlineto 0 5 rlineto closepath
fill
92 178 moveto
0 -5 rlineto 5 0 rlineto 0 5 rlineto closepath
fill
107 178 moveto
0 -5 rlineto 5 0 rlineto 0 5 rlineto closepath
fill
117 178 moveto
0 -5 rlineto 5 0 rlineto 0 5 rlineto closepath
fill
147 178 moveto
0 -5 rlineto 5 0 rlineto 0 5 rlineto closepath
fill
177 178 moveto
0 -5 rlineto 5 0 rlineto 0 5 rlineto closepath
fill
17 173 moveto
0 -5 rlineto 5 0 rlineto 0 5 rlineto closepath
fill
27 173 moveto
0 -5 rlineto 5 0 rlineto 0 5 rlineto closepath
fill
32 173 moveto
0 -5 rlineto 5 0 rlineto 0 5 rlineto closepath
fill
37 173 moveto
0 -5 rlineto 5 0 rlineto 0 5 rlineto closepath
fill
47 173 moveto
0 -5 rlineto 5 0 rlineto 0 5 rlineto closepath
fill
62 173 moveto
0 -5 rlineto 5 0 rlineto 0 5 rlineto closepath
fill
67 173 moveto
0 -5 rlineto 5 0 rlineto 0 5 rlineto closepath
fill
72 173 moveto
0 -5 rlineto 5 0 rlineto 0 5 rlineto closepath
fill
87 173 moveto
0 -5 rlineto 5 0 rlineto 0 5 rlineto closepath
fill
112 173 moveto
0 -5 rlineto 5 0 rlineto 0 5 rlineto closepath
fill
117 173 moveto
0 -5 rlineto 5 0 rlineto 0 5 rlineto closepath
fill
122 173 moveto
0 -5 rlineto 5 0 rlineto 0 5 rlineto closepath
fill
132 173 moveto
0 -5 rlineto 5 0 rlineto 0 5 rlineto closepath
fill
147 173 moveto
0 -5 rlineto 5 0 rlineto 0 5 rlineto closepath
fill
157 173 moveto
0 -5 rlineto 5 0 rlineto 0 5 rlineto closepath
fill
162 173 moveto
0 -5 rlineto 5 0 rlineto 0 5 rlineto closepath
fill
167 173 moveto
0 -5 rlineto 5 0 rlineto 0 5 rlineto closepath
fill
177 173 moveto
0 -5 rlineto 5 0 rlineto 0 5 rlineto closepath
fill
17 168 moveto
0 -5 rlineto 5 0 rlineto 0 5 rlineto closepath
fill
27 168 moveto
0 -5 rlineto 5 0 rlineto 0 5 rlineto closepath
fill
32 168 moveto
0 -5 rlineto 5 0 rlineto 0 5 rlineto closepath
fill
37 168 moveto
0 -5 rlineto 5 0 rlineto 0 5 rlineto closepath
fill
47 168 moveto
0 -5 rlineto 5 0 rlineto 0 5 rlineto closepath
fill
57 168 moveto
0 -5 rlineto 5 0 rlineto 0 5 rlineto closepath
fill
62 168 moveto
0 -5 rlineto 5 0 rlineto 0 5 rlineto closepath
fill
72 168 moveto
0 -5 rlineto 5 0 rlineto 0 5 rlineto closepath
fill
82 168 moveto
0 -5 rlineto 5 0 rlineto 0 5 rlineto closepath
fill
87 168 moveto
0 -5 rlineto 5 0 rlineto 0 5 rlineto closepath
fill
92 168 moveto
0 -5 rlineto 5 0 rlineto 0 5 rlineto closepath
fill
102 168 moveto
0 -5 rlineto 5 0 rlineto 0 5 rlineto closepath
fill
112 168 moveto
0 -5 rlineto 5 0 rlineto 0 5 rlineto closepath
fill
117 168 moveto
0 -5 rlineto 5 0 rlineto 0 5 rlineto closepath
fill
127 168 moveto
0 -5 rlineto 5 0 rlineto 0 5 rlineto closepath
fill
132 168 moveto
0 -5 rlineto 5 0 rlineto 0 5 rlineto closepath
fill
137 168 moveto
0 -5 rlineto 5 0 rlineto 0 5 rlineto closepath
fill
147 168 moveto
0 -5 rlineto 5 0 rlineto 0 5 rlineto closepath
fill
157 168 moveto
0 -5 rlineto 5 0 rlineto 0 5 rlineto closepath
fill
162 168 moveto
0 -5 rlineto 5 0 rlineto 0 5 rlineto closepath
fill
167 168 moveto
0 -5 rlineto 5 0 rlineto 0 5 rlineto closepath
fill
177 168 moveto
0 -5 rlineto 5 0 rlineto 0 5 rlineto closepath
fill
17 163 moveto
0 -5 rlineto 5 0 rlineto 0 5 rlineto closepath
fill
27 163 moveto
0 -5 rlineto 5 0 rlineto 0 5 rlineto closepath
fill
32 163 moveto
0 -5 rlineto 5 0 rlineto 0 5 rlineto closepath
fill
37 163 moveto
0 -5 rlineto 5 0 rlineto 0 5 rlineto closepath
fill
47 163 moveto
0 -5 rlineto 5 0 rlineto 0 5 rlineto closepath
fill
67 163 moveto
0 -5 rlineto 5 0 rlineto 0 5 rlineto closepath
fill
77 163 moveto
0 -5 rlineto 5 0 rlineto 0 5 rlineto closepath
fill
82 163 moveto
0 -5 rlineto 5 0 rlineto 0 5 rlineto closepath
fill
97 163 moveto
0 -5 rlineto 5 0 rlineto 0 5 rlineto closepath
fill
107 163 moveto
0 -5 rlineto 5 0 rlineto 0 5 rlineto closepath
fill
112 163 moveto
0 -5 rlineto 5 0 rlineto 0 5 rlineto closepath
fill
122 163 moveto
0 -5 rlineto 5 0 rlineto 0 5 rlineto closepath
fill
132 163 moveto
0 -5 rlineto 5 0 rlineto 0 5 rlineto closepath
fill
147 163 moveto
0 -5 rlineto 5 0 rlineto 0 5 rlineto closepath
fill
157 163 moveto
0 -5 rlineto 5 0 rlineto 0 5 rlineto closepath
fill
162 163 moveto
0 -5 rlineto 5 0 rlineto 0 5 rlineto closepath
fill
167 163 moveto
0 -5 rlineto 5 0 rlineto 0 5 rlineto closepath
fill
177 163 moveto
0 -5 rlineto 5 0 rlineto 0 5 rlineto closepath
fill
17 158 moveto
0 -5 rlineto 5 0 rlineto 0 5 rlineto closepath
fill
47 158 moveto
0 -5 rlineto 5 0 rlineto 0 5 rlineto closepath
fill
57 158 moveto
0 -5 rlineto 5 0 rlineto 0 5 rlineto closepath
fill
67 158 moveto
0 -5 rlineto 5 0 rlineto 0 5 rlineto closepath
fill
87 158 moveto
0 -5 rlineto 5 0 rlineto 0 5 rlineto closepath
fill
92 158 moveto
0 -5 rlineto 5 0 rlineto 0 5 rlineto closepath
fill
117 158 moveto
0 -5 rlineto 5 0 rlineto 0 5 rlineto closepath
fill
122 158 moveto
0 -5 rlineto 5 0 rlineto 0 5 rlineto closepath
fill
127 158 moveto
0 -5 rlineto 5 0 rlineto 0 5 rlineto closepath
fill
137 158 moveto
0 -5 rlineto 5 0 rlineto 0 5 rlineto closepath
fill
147 158 moveto
0 -5 rlineto 5 0 rlineto 0 5 rlineto closepath
fill
177 158 moveto
0 -5 rlineto 5 0 rlineto 0 5 rlineto closepath
fill
17 153 moveto
0 -5 rlineto 5 0 rlineto 0 5 rlineto closepath
fill
22 153 moveto
0 -5 rlineto 5 0 rlineto 0 5 rlineto closepath
fill
27 153 moveto
0 -5 rlineto 5 0 rlineto 0 5 rlineto closepath
fill
32 153 moveto
0 -5 rlineto 5 0 rlineto 0 5 rlineto closepath
fill
37 153 moveto
0 -5 rlineto 5 0 rlineto 0 5 rlineto closepath
fill
42 153 moveto
0 -5 rlineto 5 0 rlineto 0 5 rlineto closepath
fill
47 153 moveto
0 -5 rlineto 5 0 rlineto 0 5 rlineto closepath
fill
57 153 moveto
0 -5 rlineto 5 0 rlineto 0 5 rlineto closepath
fill
67 153 moveto
0 -5 rlineto 5 0 rlineto 0 5 rlineto closepath
fill
77 153 moveto
0 -5 rlineto 5 0 rlineto 0 5 rlineto closepath
fill
87 153 moveto
0 -5 rlineto 5 0 rlineto 0 5 rlineto closepath
fill
97 153 moveto
0 -5 rlineto 5 0 rlineto 0 5 rlineto closepath
fill
107 153 moveto
0 -5 rlineto 5 0 rlineto 0 5 rlineto closepath
fill
117 153 moveto
0 -5 rlineto 5 0 rlineto 0 5 rlineto closepath
fill
127 153 moveto
0 -5 rlineto 5 0 rlineto 0 5 rlineto closepath
fill
137 153 moveto
0 -5 rlineto 5 0 rlineto 0 5 rlineto closepath
fill
147 153 moveto
0 -5 rlineto 5 0 rlineto 0 5 rlineto closepath
fill
152 153 moveto
0 -5 rlineto 5 0 rlineto 0 5 rlineto closepath
fill
157 153 moveto
0 -5 rlineto 5 0 rlineto 0 5 rlineto closepath
fill
162 153 moveto
0 -5 rlineto 5 0 rlineto 0 5 rlineto closepath
fill
167 153 moveto
0 -5 rlineto 5 0 rlineto 0 5 rlineto closepath
fill
172 153 moveto
0 -5 rlineto 5 0 rlineto 0 5 rlineto closepath
fill
177 153 moveto
0 -5 rlineto 5 0 rlineto 0 5 rlineto closepath
fill
77 148 moveto
0 -5 rlineto 5 0 rlineto 0 5 rlineto closepath
fill
97 148 moveto
0 -5 rlineto 5 0 rlineto 0 5 rlineto closepath
fill
107 148 moveto
0 -5 rlineto 5 0 rlineto 0 5 rlineto closepath
fill
112 148 moveto
0 -5 rlineto 5 0 rlineto 0 5 rlineto closepath
fill
122 148 moveto
0 -5 rlineto 5 0 rlineto 0 5 rlineto closepath
fill
127 148 moveto
0 -5 rlineto 5 0 rlineto 0 5 rlineto closepath
fill
17 143 moveto
0 -5 rlineto 5 0 rlineto 0 5 rlineto closepath
fill
22 143 moveto
0 -5 rlineto 5 0 rlineto 0 5 rlineto closepath
fill
27 143 moveto
0 -5 rlineto 5 0 rlineto 0 5 rlineto closepath
fill
32 143 moveto
0 -5 rlineto 5 0 rlineto 0 5 rlineto closepath
fill
37 143 moveto
0 -5 rlineto 5 0 rlineto 0 5 rlineto closepath
fill
47 143 moveto
0 -5 rlineto 5 0 rlineto 0 5 rlineto closepath
fill
52 143 moveto
0 -5 rlineto 5 0 rlineto 0 5 rlineto closepath
fill
57 143 moveto
0 -5 rlineto 5 0 rlineto 0 5 rlineto closepath
fill
62 143 moveto
0 -5 rlineto 5 0 rlineto 0 5 rlineto closepath
fill
67 143 moveto
0 -5 rlineto 5 0 rlineto 0 5 rlineto closepath
fill
77 143 moveto
0 -5 rlineto 5 0 rlineto 0 5 rlineto closepath
fill
82 143 moveto
0 -5 rlineto 5 0 rlineto 0 5 rlineto closepath
fill
87 143 moveto
0 -5 rlineto 5 0 rlineto 0 5 rlineto closepath
fill
102 143 moveto
0 -5 rlineto 5 0 rlineto 0 5 rlineto closepath
fill
107 143 moveto
0 -5 rlineto 5 0 rlineto 0 5 rlineto closepath
fill
117 143 moveto
0 -5 rlineto 5 0 rlineto 0 5 rlineto closepath
fill
142 143 moveto
0 -5 rlineto 5 0 rlineto 0 5 rlineto closepath
fill
152 143 moveto
0 -5 rlineto 5 0 rlineto 0 5 rlineto closepath
fill
162 143 moveto
0 -5 rlineto 5 0 rlineto 0 5 rlineto closepath
fill
172 143 moveto
0 -5 rlineto 5 0 rlineto 0 5 rlineto closepath
fill
17 138 moveto
0 -5 rlineto 5 0 rlineto 0 5 rlineto closepath
fill
27 138 moveto
0 -5 rlineto 5 0 rlineto 0 5 rlineto closepath
fill
32 138 moveto
0 -5 rlineto 5 0 rlineto 0 5 rlineto closepath
fill
52 138 moveto
0 -5 rlineto 5 0 rlineto 0 5 rlineto closepath
fill
57 138 moveto
0 -5 rlineto 5 0 rlineto 0 5 rlineto closepath
fill
62 138 moveto
0 -5 rlineto 5 0 rlineto 0 5 rlineto closepath
fill
97 138 moveto
0 -5 rlineto 5 0 rlineto 0 5 rlineto closepath
fill
102 138 moveto
0 -5 rlineto 5 0 rlineto 0 5 rlineto closepath
fill
112 138 moveto
0 -5 rlineto 5 0 rlineto 0 5 rlineto closepath
fill
117 138 moveto
0 -5 rlineto 5 0 rlineto 0 5 rlineto closepath
fill
132 138 moveto
0 -5 rlineto 5 0 rlineto 0 5 rlineto closepath
fill
147 138 moveto
0 -5 rlineto 5 0 rlineto 0 5 rlineto closepath
fill
167 138 moveto
0 -5 rlineto 5 0 rlineto 0 5 rlineto closepath
fill
172 138 moveto
0 -5 rlineto 5 0 rlineto 0 5 rlineto closepath
fill
177 138 moveto
0 -5 rlineto 5 0 rlineto 0 5 rlineto closepath
fill
17 133 moveto
0 -5 rlineto 5 0 rlineto 0 5 rlineto closepath
fill
22 133 moveto
0 -5 rlineto 5 0 rlineto 0 5 rlineto closepath
fill
37 133 moveto
0 -5 rlineto 5 0 rlineto 0 5 rlineto closepath
fill
47 133 moveto
0 -5 rlineto 5 0 rlineto 0 5 rlineto closepath
fill
52 133 moveto
0 -5 rlineto 5 0 rlineto 0 5 rlineto closepath
fill
57 133 moveto
0 -5 rlineto 5 0 rlineto 0 5 rlineto closepath
fill
62 133 moveto
0 -5 rlineto 5 0 rlineto 0 5 rlineto closepath
fill
72 133 moveto
0 -5 rlineto 5 0 rlineto 0 5 rlineto closepath
fill
77 133 moveto
0 -5 rlineto 5 0 rlineto 0 5 rlineto closepath
fill
82 133 moveto
0 -5 rlineto 5 0 rlineto 0 5 rlineto closepath
fill
87 133 moveto
0 -5 rlineto 5 0 rlineto 0 5 rlineto closepath
fill
92 133 moveto
0 -5 rlineto 5 0 rlineto 0 5 rlineto closepath
fill
97 133 moveto
0 -5 rlineto 5 0 rlineto 0 5 rlineto closepath
fill
127 133 moveto
0 -5 rlineto 5 0 rlineto 0 5 rlineto closepath
fill
142 133 moveto
0 -5 rlineto 5 0 rlineto 0 5 rlineto closepath
fill
147 133 moveto
0 -5 rlineto 5 0 rlineto 0 5 rlineto closepath
fill
157 133 moveto
0 -5 rlineto 5 0 rlineto 0 5 rlineto closepath
fill
162 133 moveto
0 -5 rlineto 5 0 rlineto 0 5 rlineto closepath
fill
172 133 moveto
0 -5 rlineto 5 0 rlineto 0 5 rlineto closepath
fill
32 128 moveto
0 -5 rlineto 5 0 rlineto 0 5 rlineto closepath
fill
52 128 moveto
0 -5 rlineto 5 0 rlineto 0 5 rlineto closepath
fill
62 128 moveto
0 -5 rlineto 5 0 rlineto 0 5 rlineto closepath
fill
67 128 moveto
0 -5 rlineto 5 0 rlineto 0 5 rlineto closepath
fill
72 128 moveto
0 -5 rlineto 5 0 rlineto 0 5 rlineto closepath
fill
87 128 moveto
0 -5 rlineto 5 0 rlineto 0 5 rlineto closepath
fill
92 128 moveto
0 -5 rlineto 5 0 rlineto 0 5 rlineto closepath
fill
117 128 moveto
0 -5 rlineto 5 0 rlineto 0 5 rlineto closepath
fill
122 128 moveto
0 -5 rlineto 5 0 rlineto 0 5 rlineto closepath
fill
127 128 moveto
0 -5 rlineto 5 0 rlineto 0 5 rlineto closepath
fill
132 128 moveto
0 -5 rlineto 5 0 rlineto 0 5 rlineto closepath
fill
137 128 moveto
0 -5 rlineto 5 0 rlineto 0 5 rlineto closepath
fill
142 128 moveto
0 -5 rlineto 5 0 rlineto 0 5 rlineto closepath
fill
147 128 moveto
0 -5 rlineto 5 0 rlineto 0 5 rlineto closepath
fill
157 128 moveto
0 -5 rlineto 5 0 rlineto 0 5 rlineto closepath
fill
167 128 moveto
0 -5 rlineto 5 0 rlineto 0 5 rlineto closepath
fill
22 123 moveto
0 -5 rlineto 5 0 rlineto 0 5 rlineto closepath
fill
32 123 moveto
0 -5 rlineto 5 0 rlineto 0 5 rlineto closepath
fill
37 123 moveto
0 -5 rlineto 5 0 rlineto 0 5 rlineto closepath
fill
47 123 moveto
0 -5 rlineto 5 0 rlineto 0 5 rlineto closepath
fill
62 123 moveto
0 -5 rlineto 5 0 rlineto 0 5 rlineto closepath
fill
72 123 moveto
0 -5 rlineto 5 0 rlineto 0 5 rlineto closepath
fill
77 123 moveto
0 -5 rlineto 5 0 rlineto 0 5 rlineto closepath
fill
82 123 moveto
0 -5 rlineto 5 0 rlineto 0 5 rlineto closepath
fill
87 123 moveto
0 -5 rlineto 5 0 rlineto 0 5 rlineto closepath
fill
92 123 moveto
0 -5 rlineto 5 0 rlineto 0 5 rlineto closepath
fill
102 123 moveto
0 -5 rlineto 5 0 rlineto 0 5 rlineto closepath
fill
112 123 moveto
0 -5 rlineto 5 0 rlineto 0 5 rlineto closepath
fill
127 123 moveto
0 -5 rlineto 5 0 rlineto 0 5 rlineto closepath
fill
142 123 moveto
0 -5 rlineto 5 0 rlineto 0 5 rlineto closepath
fill
152 123 moveto
0 -5 rlineto 5 0 rlineto 0 5 rlineto closepath
fill
157 123 moveto
0 -5 rlineto 5 0 rlineto 0 5 rlineto closepath
fill
162 123 moveto
0 -5 rlineto 5 0 rlineto 0 5 rlineto closepath
fill
22 118 moveto
0 -5 rlineto 5 0 rlineto 0 5 rlineto closepath
fill
27 118 moveto
0 -5 rlineto 5 0 rlineto 0 5 rlineto closepath
fill
52 118 moveto
0 -5 rlineto 5 0 rlineto 0 5 rlineto closepath
fill
57 118 moveto
0 -5 rlineto 5 0 rlineto 0 5 rlineto closepath
fill
67 118 moveto
0 -5 rlineto 5 0 rlineto 0 5 rlineto closepath
fill
77 118 moveto
0 -5 rlineto 5 0 rlineto 0 5 rlineto closepath
fill
82 118 moveto
0 -5 rlineto 5 0 rlineto 0 5 rlineto closepath
fill
97 118 moveto
0 -5 rlineto 5 0 rlineto 0 5 rlineto closepath
fill
107 118 moveto
0 -5 rlineto 5 0 rlineto 0 5 rlineto closepath
fill
112 118 moveto
0 -5 rlineto 5 0 rlineto 0 5 rlineto closepath
fill
117 118 moveto
0 -5 rlineto 5 0 rlineto 0 5 rlineto closepath
fill
122 118 moveto
0 -5 rlineto 5 0 rlineto 0 5 rlineto closepath
fill
132 118 moveto
0 -5 rlineto 5 0 rlineto 0 5 rlineto closepath
fill
147 118 moveto
0 -5 rlineto 5 0 rlineto 0 5 rlineto closepath
fill
172 118 moveto
0 -5 rlineto 5 0 rlineto 0 5 rlineto closepath
fill
177 118 moveto
0 -5 rlineto 5 0 rlineto 0 5 rlineto closepath
fill
42 113 moveto
0 -5 rlineto 5 0 rlineto 0 5 rlineto closepath
fill
47 113 moveto
0 -5 rlineto 5 0 rlineto 0 5 rlineto closepath
fill
52 113 moveto
0 -5 rlineto 5 0 rlineto 0 5 rlineto closepath
fill
62 113 moveto
0 -5 rlineto 5 0 rlineto 0 5 rlineto closepath
fill
67 113 moveto
0 -5 rlineto 5 0 rlineto 0 5 rlineto closepath
fill
92 113 moveto
0 -5 rlineto 5 0 rlineto 0 5 rlineto closepath
fill
97 113 moveto
0 -5 rlineto 5 0 rlineto 0 5 rlineto closepath
fill
102 113 moveto
0 -5 rlineto 5 0 rlineto 0 5 rlineto closepath
fill
107 113 moveto
0 -5 rlineto 5 0 rlineto 0 5 rlineto closepath
fill
117 113 moveto
0 -5 rlineto 5 0 rlineto 0 5 rlineto closepath
fill
122 113 moveto
0 -5 rlineto 5 0 rlineto 0 5 rlineto closepath
fill
142 113 moveto
0 -5 rlineto 5 0 rlineto 0 5 rlineto closepath
fill
157 113 moveto
0 -5 rlineto 5 0 rlineto 0 5 rlineto closepath
fill
172 113 moveto
0 -5 rlineto 5 0 rlineto 0 5 rlineto closepath
fill
17 108 moveto
0 -5 rlineto 5 0 rlineto 0 5 rlineto closepath
fill
22 108 moveto
0 -5 rlineto 5 0 rlineto 0 5 rlineto closepath
fill
27 108 moveto
0 -5 rlineto 5 0 rlineto 0 5 rlineto closepath
fill
37 108 moveto
0 -5 rlineto 5 0 rlineto 0 5 rlineto closepath
fill
62 108 moveto
0 -5 rlineto 5 0 rlineto 0 5 rlineto closepath
fill
67 108 moveto
0 -5 rlineto 5 0 rlineto 0 5 rlineto closepath
fill
72 108 moveto
0 -5 rlineto 5 0 rlineto 0 5 rlineto closepath
fill
77 108 moveto
0 -5 rlineto 5 0 rlineto 0 5 rlineto closepath
fill
87 108 moveto
0 -5 rlineto 5 0 rlineto 0 5 rlineto closepath
fill
92 108 moveto
0 -5 rlineto 5 0 rlineto 0 5 rlineto closepath
fill
97 108 moveto
0 -5 rlineto 5 0 rlineto 0 5 rlineto closepath
fill
122 108 moveto
0 -5 rlineto 5 0 rlineto 0 5 rlineto closepath
fill
127 108 moveto
0 -5 rlineto 5 0 rlineto 0 5 rlineto closepath
fill
132 108 moveto
0 -5 rlineto 5 0 rlineto 0 5 rlineto closepath
fill
142 108 moveto
0 -5 rlineto 5 0 rlineto 0 5 rlineto closepath
fill
147 108 moveto
0 -5 rlineto 5 0 rlineto 0 5 rlineto closepath
fill
167 108 moveto
0 -5 rlineto 5 0 rlineto 0 5 rlineto closepath
fill
22 103 moveto
0 -5 rlineto 5 0 rlineto 0 5 rlineto closepath
fill
32 103 moveto
0 -5 rlineto 5 0 rlineto 0 5 rlineto closepath
fill
37 103 moveto
0 -5 rlineto 5 0 rlineto 0 5 rlineto closepath
fill
47 103 moveto
0 -5 rlineto 5 0 rlineto 0 5 rlineto closepath
fill
52 103 moveto
0 -5 rlineto 5 0 rlineto 0 5 rlineto closepath
fill
57 103 moveto
0 -5 rlineto 5 0 rlineto 0 5 rlineto closepath
fill
82 103 moveto
0 -5 rlineto 5 0 rlineto 0 5 rlineto closepath
fill
87 103 moveto
0 -5 rlineto 5 0 rlineto 0 5 rlineto closepath
fill
102 103 moveto
0 -5 rlineto 5 0 rlineto 0 5 rlineto closepath
fill
112 103 moveto
0 -5 rlineto 5 0 rlineto 0 5 rlineto closepath
fill
127 103 moveto
0 -5 rlineto 5 0 rlineto 0 5 rlineto closepath
fill
132 103 moveto
0 -5 rlineto 5 0 rlineto 0 5 rlineto closepath
fill
137 103 moveto
0 -5 rlineto 5 0 rlineto 0 5 rlineto closepath
fill
142 103 moveto
0 -5 rlineto 5 0 rlineto 0 5 rlineto closepath
fill
152 103 moveto
0 -5 rlineto 5 0 rlineto 0 5 rlineto closepath
fill
157 103 moveto
0 -5 rlineto 5 0 rlineto 0 5 rlineto closepath
fill
172 103 moveto
0 -5 rlineto 5 0 rlineto 0 5 rlineto closepath
fill
27 98 moveto
0 -5 rlineto 5 0 rlineto 0 5 rlineto closepath
fill
62 98 moveto
0 -5 rlineto 5 0 rlineto 0 5 rlineto closepath
fill
72 98 moveto
0 -5 rlineto 5 0 rlineto 0 5 rlineto closepath
fill
82 98 moveto
0 -5 rlineto 5 0 rlineto 0 5 rlineto closepath
fill
97 98 moveto
0 -5 rlineto 5 0 rlineto 0 5 rlineto closepath
fill
102 98 moveto
0 -5 rlineto 5 0 rlineto 0 5 rlineto closepath
fill
107 98 moveto
0 -5 rlineto 5 0 rlineto 0 5 rlineto closepath
fill
112 98 moveto
0 -5 rlineto 5 0 rlineto 0 5 rlineto closepath
fill
117 98 moveto
0 -5 rlineto 5 0 rlineto 0 5 rlineto closepath
fill
122 98 moveto
0 -5 rlineto 5 0 rlineto 0 5 rlineto closepath
fill
127 98 moveto
0 -5 rlineto 5 0 rlineto 0 5 rlineto closepath
fill
132 98 moveto
0 -5 rlineto 5 0 rlineto 0 5 rlineto closepath
fill
137 98 moveto
0 -5 rlineto 5 0 rlineto 0 5 rlineto closepath
fill
147 98 moveto
0 -5 rlineto 5 0 rlineto 0 5 rlineto closepath
fill
162 98 moveto
0 -5 rlineto 5 0 rlineto 0 5 rlineto closepath
fill
172 98 moveto
0 -5 rlineto 5 0 rlineto 0 5 rlineto closepath
fill
177 98 moveto
0 -5 rlineto 5 0 rlineto 0 5 rlineto closepath
fill
17 93 moveto
0 -5 rlineto 5 0 rlineto 0 5 rlineto closepath
fill
22 93 moveto
0 -5 rlineto 5 0 rlineto 0 5 rlineto closepath
fill
27 93 moveto
0 -5 rlineto 5 0 rlineto 0 5 rlineto closepath
fill
32 93 moveto
0 -5 rlineto 5 0 rlineto 0 5 rlineto closepath
fill
37 93 moveto
0 -5 rlineto 5 0 rlineto 0 5 rlineto closepath
fill
47 93 moveto
0 -5 rlineto 5 0 rlineto 0 5 rlineto closepath
fill
52 93 moveto
0 -5 rlineto 5 0 rlineto 0 5 rlineto closepath
fill
62 93 moveto
0 -5 rlineto 5 0 rlineto 0 5 rlineto closepath
fill
67 93 moveto
0 -5 rlineto 5 0 rlineto 0 5 rlineto closepath
fill
82 93 moveto
0 -5 rlineto 5 0 rlineto 0 5 rlineto closepath
fill
87 93 moveto
0 -5 rlineto 5 0 rlineto 0 5 rlineto closepath
fill
92 93 moveto
0 -5 rlineto 5 0 rlineto 0 5 rlineto closepath
fill
97 93 moveto
0 -5 rlineto 5 0 rlineto 0 5 rlineto closepath
fill
102 93 moveto
0 -5 rlineto 5 0 rlineto 0 5 rlineto closepath
fill
117 93 moveto
0 -5 rlineto 5 0 rlineto 0 5 rlineto closepath
fill
122 93 moveto
0 -5 rlineto 5 0 rlineto 0 5 rlineto closepath
fill
142 93 moveto
0 -5 rlineto 5 0 rlineto 0 5 rlineto closepath
fill
147 93 moveto
0 -5 rlineto 5 0 rlineto 0 5 rlineto closepath
fill
152 93 moveto
0 -5 rlineto 5 0 rlineto 0 5 rlineto closepath
fill
157 93 moveto
0 -5 rlineto 5 0 rlineto 0 5 rlineto closepath
fill
162 93 moveto
0 -5 rlineto 5 0 rlineto 0 5 rlineto closepath
fill
172 93 moveto
0 -5 rlineto 5 0 rlineto 0 5 rlineto closepath
fill
17 88 moveto
0 -5 rlineto 5 0 rlineto 0 5 rlineto closepath
fill
22 88 moveto
0 -5 rlineto 5 0 rlineto 0 5 rlineto closepath
fill
27 88 moveto
0 -5 rlineto 5 0 rlineto 0 5 rlineto closepath
fill
32 88 moveto
0 -5 rlineto 5 0 rlineto 0 5 rlineto closepath
fill
57 88 moveto
0 -5 rlineto 5 0 rlineto 0 5 rlineto closepath
fill
67 88 moveto
0 -5 rlineto 5 0 rlineto 0 5 rlineto closepath
fill
92 88 moveto
0 -5 rlineto 5 0 rlineto 0 5 rlineto closepath
fill
122 88 moveto
0 -5 rlineto 5 0 rlineto 0 5 rlineto closepath
fill
157 88 moveto
0 -5 rlineto 5 0 rlineto 0 5 rlineto closepath
fill
167 88 moveto
0 -5 rlineto 5 0 rlineto 0 5 rlineto closepath
fill
22 83 moveto
0 -5 rlineto 5 0 rlineto 0 5 rlineto closepath
fill
27 83 moveto
0 -5 rlineto 5 0 rlineto 0 5 rlineto closepath
fill
47 83 moveto
0 -5 rlineto 5 0 rlineto 0 5 rlineto closepath
fill
52 83 moveto
0 -5 rlineto 5 0 rlineto 0 5 rlineto closepath
fill
57 83 moveto
0 -5 rlineto 5 0 rlineto 0 5 rlineto closepath
fill
67 83 moveto
0 -5 rlineto 5 0 rlineto 0 5 rlineto closepath
fill
82 83 moveto
0 -5 rlineto 5 0 rlineto 0 5 rlineto closepath
fill
97 83 moveto
0 -5 rlineto 5 0 rlineto 0 5 rlineto closepath
fill
102 83 moveto
0 -5 rlineto 5 0 rlineto 0 5 rlineto closepath
fill
127 83 moveto
0 -5 rlineto 5 0 rlineto 0 5 rlineto closepath
fill
132 83 moveto
0 -5 rlineto 5 0 rlineto 0 5 rlineto closepath
fill
137 83 moveto
0 -5 rlineto 5 0 rlineto 0 5 rlineto closepath
fill
142 83 moveto
0 -5 rlineto 5 0 rlineto 0 5 rlineto closepath
fill
152 83 moveto
0 -5 rlineto 5 0 rlineto 0 5 rlineto closepath
fill
157 83 moveto
0 -5 rlineto 5 0 rlineto 0 5 rlineto closepath
fill
172 83 moveto
0 -5 rlineto 5 0 rlineto 0 5 rlineto closepath
fill
17 78 moveto
0 -5 rlineto 5 0 rlineto 0 5 rlineto closepath
fill
22 78 moveto
0 -5 rlineto 5 0 rlineto 0 5 rlineto closepath
fill
62 78 moveto
0 -5 rlineto 5 0 rlineto 0 5 rlineto closepath
fill
72 78 moveto
0 -5 rlineto 5 0 rlineto 0 5 rlineto closepath
fill
82 78 moveto
0 -5 rlineto 5 0 rlineto 0 5 rlineto closepath
fill
97 78 moveto
0 -5 rlineto 5 0 rlineto 0 5 rlineto closepath
fill
102 78 moveto
0 -5 rlineto 5 0 rlineto 0 5 rlineto closepath
fill
107 78 moveto
0 -5 rlineto 5 0 rlineto 0 5 rlineto closepath
fill
112 78 moveto
0 -5 rlineto 5 0 rlineto 0 5 rlineto closepath
fill
117 78 moveto
0 -5 rlineto 5 0 rlineto 0 5 rlineto closepath
fill
122 78 moveto
0 -5 rlineto 5 0 rlineto 0 5 rlineto closepath
fill
127 78 moveto
0 -5 rlineto 5 0 rlineto 0 5 rlineto closepath
fill
132 78 moveto
0 -5 rlineto 5 0 rlineto 0 5 rlineto closepath
fill
147 78 moveto
0 -5 rlineto 5 0 rlineto 0 5 rlineto closepath
fill
152 78 moveto
0 -5 rlineto 5 0 rlineto 0 5 rlineto closepath
fill
162 78 moveto
0 -5 rlineto 5 0 rlineto 0 5 rlineto closepath
fill
172 78 moveto
0 -5 rlineto 5 0 rlineto 0 5 rlineto closepath
fill
177 78 moveto
0 -5 rlineto 5 0 rlineto 0 5 rlineto closepath
fill
17 73 moveto
0 -5 rlineto 5 0 rlineto 0 5 rlineto closepath
fill
27 73 moveto
0 -5 rlineto 5 0 rlineto 0 5 rlineto closepath
fill
37 73 moveto
0 -5 rlineto 5 0 rlineto 0 5 rlineto closepath
fill
42 73 moveto
0 -5 rlineto 5 0 rlineto 0 5 rlineto closepath
fill
47 73 moveto
0 -5 rlineto 5 0 rlineto 0 5 rlineto closepath
fill
67 73 moveto
0 -5 rlineto 5 0 rlineto 0 5 rlineto closepath
fill
77 73 moveto
0 -5 rlineto 5 0 rlineto 0 5 rlineto closepath
fill
82 73 moveto
0 -5 rlineto 5 0 rlineto 0 5 rlineto closepath
fill
87 73 moveto
0 -5 rlineto 5 0 rlineto 0 5 rlineto closepath
fill
92 73 moveto
0 -5 rlineto 5 0 rlineto 0 5 rlineto closepath
fill
97 73 moveto
0 -5 rlineto 5 0 rlineto 0 5 rlineto closepath
fill
122 73 moveto
0 -5 rlineto 5 0 rlineto 0 5 rlineto closepath
fill
142 73 moveto
0 -5 rlineto 5 0 rlineto 0 5 rlineto closepath
fill
162 73 moveto
0 -5 rlineto 5 0 rlineto 0 5 rlineto closepath
fill
172 73 moveto
0 -5 rlineto 5 0 rlineto 0 5 rlineto closepath
fill
17 68 moveto
0 -5 rlineto 5 0 rlineto 0 5 rlineto closepath
fill
27 68 moveto
0 -5 rlineto 5 0 rlineto 0 5 rlineto closepath
fill
32 68 moveto
0 -5 rlineto 5 0 rlineto 0 5 rlineto closepath
fill
37 68 moveto
0 -5 rlineto 5 0 rlineto 0 5 rlineto closepath
fill
57 68 moveto
0 -5 rlineto 5 0 rlineto 0 5 rlineto closepath
fill
77 68 moveto
0 -5 rlineto 5 0 rlineto 0 5 rlineto closepath
fill
92 68 moveto
0 -5 rlineto 5 0 rlineto 0 5 rlineto closepath
fill
97 68 moveto
0 -5 rlineto 5 0 rlineto 0 5 rlineto closepath
fill
117 68 moveto
0 -5 rlineto 5 0 rlineto 0 5 rlineto closepath
fill
122 68 moveto
0 -5 rlineto 5 0 rlineto 0 5 rlineto closepath
fill
132 68 moveto
0 -5 rlineto 5 0 rlineto 0 5 rlineto closepath
fill
142 68 moveto
0 -5 rlineto 5 0 rlineto 0 5 rlineto closepath
fill
152 68 moveto
0 -5 rlineto 5 0 rlineto 0 5 rlineto closepath
fill
157 68 moveto
0 -5 rlineto 5 0 rlineto 0 5 rlineto closepath
fill
162 68 moveto
0 -5 rlineto 5 0 rlineto 0 5 rlineto closepath
fill
167 68 moveto
0 -5 rlineto 5 0 rlineto 0 5 rlineto closepath
fill
17 63 moveto
0 -5 rlineto 5 0 rlineto 0 5 rlineto closepath
fill
27 63 moveto
0 -5 rlineto 5 0 rlineto 0 5 rlineto closepath
fill
32 63 moveto
0 -5 rlineto 5 0 rlineto 0 5 rlineto closepath
fill
37 63 moveto
0 -5 rlineto 5 0 rlineto 0 5 rlineto closepath
fill
47 63 moveto
0 -5 rlineto 5 0 rlineto 0 5 rlineto closepath
fill
67 63 moveto
0 -5 rlineto 5 0 rlineto 0 5 rlineto closepath
fill
82 63 moveto
0 -5 rlineto 5 0 rlineto 0 5 rlineto closepath
fill
87 63 moveto
0 -5 rlineto 5 0 rlineto 0 5 rlineto closepath
fill
92 63 moveto
0 -5 rlineto 5 0 rlineto 0 5 rlineto closepath
fill
102 63 moveto
0 -5 rlineto 5 0 rlineto 0 5 rlineto closepath
fill
107 63 moveto
0 -5 rlineto 5 0 rlineto 0 5 rlineto closepath
fill
117 63 moveto
0 -5 rlineto 5 0 rlineto 0 5 rlineto closepath
fill
127 63 moveto
0 -5 rlineto 5 0 rlineto 0 5 rlineto closepath
fill
132 63 moveto
0 -5 rlineto 5 0 rlineto 0 5 rlineto closepath
fill
137 63 moveto
0 -5 rlineto 5 0 rlineto 0 5 rlineto closepath
fill
142 63 moveto
0 -5 rlineto 5 0 rlineto 0 5 rlineto closepath
fill
147 63 moveto
0 -5 rlineto 5 0 rlineto 0 5 rlineto closepath
fill
152 63 moveto
0 -5 rlineto 5 0 rlineto 0 5 rlineto closepath
fill
157 63 moveto
0 -5 rlineto 5 0 rlineto 0 5 rlineto closepath
fill
162 63 moveto
0 -5 rlineto 5 0 rlineto 0 5 rlineto closepath
fill
177 63 moveto
0 -5 rlineto 5 0 rlineto 0 5 rlineto closepath
fill
57 58 moveto
0 -5 rlineto 5 0 rlineto 0 5 rlineto closepath
fill
62 58 moveto
0 -5 rlineto 5 0 rlineto 0 5 rlineto closepath
fill
67 58 moveto
0 -5 rlineto 5 0 rlineto 0 5 rlineto closepath
fill
72 58 moveto
0 -5 rlineto 5 0 rlineto 0 5 rlineto closepath
fill
97 58 moveto
0 -5 rlineto 5 0 rlineto 0 5 rlineto closepath
fill
102 58 moveto
0 -5 rlineto 5 0 rlineto 0 5 rlineto closepath
fill
107 58 moveto
0 -5 rlineto 5 0 rlineto 0 5 rlineto closepath
fill
112 58 moveto
0 -5 rlineto 5 0 rlineto 0 5 rlineto closepath
fill
117 58 moveto
0 -5 rlineto 5 0 rlineto 0 5 rlineto closepath
fill
122 58 moveto
0 -5 rlineto 5 0 rlineto 0 5 rlineto closepath
fill
127 58 moveto
0 -5 rlineto 5 0 rlineto 0 5 rlineto closepath
fill
137 58 moveto
0 -5 rlineto 5 0 rlineto 0 5 rlineto closepath
fill
157 58 moveto
0 -5 rlineto 5 0 rlineto 0 5 rlineto closepath
fill
167 58 moveto
0 -5 rlineto 5 0 rlineto 0 5 rlineto closepath
fill
177 58 moveto
0 -5 rlineto 5 0 rlineto 0 5 rlineto closepath
fill
17 53 moveto
0 -5 rlineto 5 0 rlineto 0 5 rlineto closepath
fill
22 53 moveto
0 -5 rlineto 5 0 rlineto 0 5 rlineto closepath
fill
27 53 moveto
0 -5 rlineto 5 0 rlineto 0 5 rlineto closepath
fill
32 53 moveto
0 -5 rlineto 5 0 rlineto 0 5 rlineto closepath
fill
37 53 moveto
0 -5 rlineto 5 0 rlineto 0 5 rlineto closepath
fill
42 53 moveto
0 -5 rlineto 5 0 rlineto 0 5 rlineto closepath
fill
47 53 moveto
0 -5 rlineto 5 0 rlineto 0 5 rlineto closepath
fill
57 53 moveto
0 -5 rlineto 5 0 rlineto 0 5 rlineto closepath
fill
62 53 moveto
0 -5 rlineto 5 0 rlineto 0 5 rlineto closepath
fill
87 53 moveto
0 -5 rlineto 5 0 rlineto 0 5 rlineto closepath
fill
92 53 moveto
0 -5 rlineto 5 0 rlineto 0 5 rlineto closepath
fill
102 53 moveto
0 -5 rlineto 5 0 rlineto 0 5 rlineto closepath
fill
117 53 moveto
0 -5 rlineto 5 0 rlineto 0 5 rlineto closepath
fill
132 53 moveto
0 -5 rlineto 5 0 rlineto 0 5 rlineto closepath
fill
137 53 moveto
0 -5 rlineto 5 0 rlineto 0 5 rlineto closepath
fill
147 53 moveto
0 -5 rlineto 5 0 rlineto 0 5 rlineto closepath
fill
157 53 moveto
0 -5 rlineto 5 0 rlineto 0 5 rlineto closepath
fill
167 53 moveto
0 -5 rlineto 5 0 rlineto 0 5 rlineto closepath
fill
172 53 moveto
0 -5 rlineto 5 0 rlineto 0 5 rlineto closepath
fill
17 48 moveto
0 -5 rlineto 5 0 rlineto 0 5 rlineto closepath
fill
47 48 moveto
0 -5 rlineto 5 0 rlineto 0 5 rlineto closepath
fill
62 48 moveto
0 -5 rlineto 5 0 rlineto 0 5 rlineto closepath
fill
67 48 moveto
0 -5 rlineto 5 0 rlineto 0 5 rlineto closepath
fill
87 48 moveto
0 -5 rlineto 5 0 rlineto 0 5 rlineto closepath
fill
92 48 moveto
0 -5 rlineto 5 0 rlineto 0 5 rlineto closepath
fill
97 48 moveto
0 -5 rlineto 5 0 rlineto 0 5 rlineto closepath
fill
107 48 moveto
0 -5 rlineto 5 0 rlineto 0 5 rlineto closepath
fill
117 48 moveto
0 -5 rlineto 5 0 rlineto 0 5 rlineto closepath
fill
122 48 moveto
0 -5 rlineto 5 0 rlineto 0 5 rlineto closepath
fill
127 48 moveto
0 -5 rlineto 5 0 rlineto 0 5 rlineto closepath
fill
132 48 moveto
0 -5 rlineto 5 0 rlineto 0 5 rlineto closepath
fill
137 48 moveto
0 -5 rlineto 5 0 rlineto 0 5 rlineto closepath
fill
157 48 moveto
0 -5 rlineto 5 0 rlineto 0 5 rlineto closepath
fill
162 48 moveto
0 -5 rlineto 5 0 rlineto 0 5 rlineto closepath
fill
167 48 moveto
0 -5 rlineto 5 0 rlineto 0 5 rlineto closepath
fill
17 43 moveto
0 -5 rlineto 5 0 rlineto 0 5 rlineto closepath
fill
27 43 moveto
0 -5 rlineto 5 0 rlineto 0 5 rlineto closepath
fill
32 43 moveto
0 -5 rlineto 5 0 rlineto 0 5 rlineto closepath
fill
37 43 moveto
0 -5 rlineto 5 0 rlineto 0 5 rlineto closepath
fill
47 43 moveto
0 -5 rlineto 5 0 rlineto 0 5 rlineto closepath
fill
57 43 moveto
0 -5 rlineto 5 0 rlineto 0 5 rlineto closepath
fill
67 43 moveto
0 -5 rlineto 5 0 rlineto 0 5 rlineto closepath
fill
72 43 moveto
0 -5 rlineto 5 0 rlineto 0 5 rlineto closepath
fill
77 43 moveto
0 -5 rlineto 5 0 rlineto 0 5 rlineto closepath
fill
82 43 moveto
0 -5 rlineto 5 0 rlineto 0 5 rlineto closepath
fill
87 43 moveto
0 -5 rlineto 5 0 rlineto 0 5 rlineto closepath
fill
102 43 moveto
0 -5 rlineto 5 0 rlineto 0 5 rlineto closepath
fill
137 43 moveto
0 -5 rlineto 5 0 rlineto 0 5 rlineto closepath
fill
142 43 moveto
0 -5 rlineto 5 0 rlineto 0 5 rlineto closepath
fill
147 43 moveto
0 -5 rlineto 5 0 rlineto 0 5 rlineto closepath
fill
152 43 moveto
0 -5 rlineto 5 0 rlineto 0 5 rlineto closepath
fill
157 43 moveto
0 -5 rlineto 5 0 rlineto 0 5 rlineto closepath
fill
177 43 moveto
0 -5 rlineto 5 0 rlineto 0 5 rlineto closepath
fill
17 38 moveto
0 -5 rlineto 5 0 rlineto 0 5 rlineto closepath
fill
27 38 moveto
0 -5 rlineto 5 0 rlineto 0 5 rlineto closepath
fill
32 38 moveto
0 -5 rlineto 5 0 rlineto 0 5 rlineto closepath
fill
37 38 moveto
0 -5 rlineto 5 0 rlineto 0 5 rlineto closepath
fill
47 38 moveto
0 -5 rlineto 5 0 rlineto 0 5 rlineto closepath
fill
57 38 moveto
0 -5 rlineto 5 0 rlineto 0 5 rlineto closepath
fill
72 38 moveto
0 -5 rlineto 5 0 rlineto 0 5 rlineto closepath
fill
82 38 moveto
0 -5 rlineto 5 0 rlineto 0 5 rlineto closepath
fill
97 38 moveto
0 -5 rlineto 5 0 rlineto 0 5 rlineto closepath
fill
112 38 moveto
0 -5 rlineto 5 0 rlineto 0 5 rlineto closepath
fill
117 38 moveto
0 -5 rlineto 5 0 rlineto 0 5 rlineto closepath
fill
132 38 moveto
0 -5 rlineto 5 0 rlineto 0 5 rlineto closepath
fill
157 38 moveto
0 -5 rlineto 5 0 rlineto 0 5 rlineto closepath
fill
162 38 moveto
0 -5 rlineto 5 0 rlineto 0 5 rlineto closepath
fill
17 33 moveto
0 -5 rlineto 5 0 rlineto 0 5 rlineto closepath
fill
27 33 moveto
0 -5 rlineto 5 0 rlineto 0 5 rlineto closepath
fill
32 33 moveto
0 -5 rlineto 5 0 rlineto 0 5 rlineto closepath
fill
37 33 moveto
0 -5 rlineto 5 0 rlineto 0 5 rlineto closepath
fill
47 33 moveto
0 -5 rlineto 5 0 rlineto 0 5 rlineto closepath
fill
57 33 moveto
0 -5 rlineto 5 0 rlineto 0 5 rlineto closepath
fill
62 33 moveto
0 -5 rlineto 5 0 rlineto 0 5 rlineto closepath
fill
67 33 moveto
0 -5 rlineto 5 0 rlineto 0 5 rlineto closepath
fill
82 33 moveto
0 -5 rlineto 5 0 rlineto 0 5 rlineto closepath
fill
92 33 moveto
0 -5 rlineto 5 0 rlineto 0 5 rlineto closepath
fill
97 33 moveto
0 -5 rlineto 5 0 rlineto 0 5 rlineto closepath
fill
102 33 moveto
0 -5 rlineto 5 0 rlineto 0 5 rlineto closepath
fill
107 33 moveto
0 -5 rlineto 5 0 rlineto 0 5 rlineto closepath
fill
127 33 moveto
0 -5 rlineto 5 0 rlineto 0 5 rlineto closepath
fill
137 33 moveto
0 -5 rlineto 5 0 rlineto 0 5 rlineto closepath
fill
147 33 moveto
0 -5 rlineto 5 0 rlineto 0 5 rlineto closepath
fill
167 33 moveto
0 -5 rlineto 5 0 rlineto 0 5 rlineto closepath
fill
172 33 moveto
0 -5 rlineto 5 0 rlineto 0 5 rlineto closepath
fill
17 28 moveto
0 -5 rlineto 5 0 rlineto 0 5 rlineto closepath
fill
47 28 moveto
0 -5 rlineto 5 0 rlineto 0 5 rlineto closepath
fill
57 28 moveto
0 -5 rlineto 5 0 rlineto 0 5 rlineto closepath
fill
77 28 moveto
0 -5 rlineto 5 0 rlineto 0 5 rlineto closepath
fill
87 28 moveto
0 -5 rlineto 5 0 rlineto 0 5 rlineto closepath
fill
92 28 moveto
0 -5 rlineto 5 0 rlineto 0 5 rlineto closepath
fill
97 28 moveto
0 -5 rlineto 5 0 rlineto 0 5 rlineto closepath
fill
117 28 moveto
0 -5 rlineto 5 0 rlineto 0 5 rlineto closepath
fill
122 28 moveto
0 -5 rlineto 5 0 rlineto 0 5 rlineto closepath
fill
127 28 moveto
0 -5 rlineto 5 0 rlineto 0 5 rlineto closepath
fill
142 28 moveto
0 -5 rlineto 5 0 rlineto 0 5 rlineto closepath
fill
147 28 moveto
0 -5 rlineto 5 0 rlineto 0 5 rlineto closepath
fill
162 28 moveto
0 -5 rlineto 5 0 rlineto 0 5 rlineto closepath
fill
167 28 moveto
0 -5 rlineto 5 0 rlineto 0 5 rlineto closepath
fill
17 23 moveto
0 -5 rlineto 5 0 rlineto 0 5 rlineto closepath
fill
22 23 moveto
0 -5 rlineto 5 0 rlineto 0 5 rlineto closepath
fill
27 23 moveto
0 -5 rlineto 5 0 rlineto 0 5 rlineto closepath
fill
32 23 moveto
0 -5 rlineto 5 0 rlineto 0 5 rlineto closepath
fill
37 23 moveto
0 -5 rlineto 5 0 rlineto 0 5 rlineto closepath
fill
42 23 moveto
0 -5 rlineto 5 0 rlineto 0 5 rlineto closepath
fill
47 23 moveto
0 -5 rlineto 5 0 rlineto 0 5 rlineto closepath
fill
57 23 moveto
0 -5 rlineto 5 0 rlineto 0 5 rlineto closepath
fill
67 23 moveto
0 -5 rlineto 5 0 rlineto 0 5 rlineto closepath
fill
77 23 moveto
0 -5 rlineto 5 0 rlineto 0 5 rlineto closepath
fill
82 23 moveto
0 -5 rlineto 5 0 rlineto 0 5 rlineto closepath
fill
87 23 moveto
0 -5 rlineto 5 0 rlineto 0 5 rlineto closepath
fill
92 23 moveto
0 -5 rlineto 5 0 rlineto 0 5 rlineto closepath
fill
97 23 moveto
0 -5 rlineto 5 0 rlineto 0 5 rlineto closepath
fill
102 23 moveto
0 -5 rlineto 5 0 rlineto 0 5 rlineto closepath
fill
127 23 moveto
0 -5 rlineto 5 0 rlineto 0 5 rlineto closepath
fill
132 23 moveto
0 -5 rlineto 5 0 rlineto 0 5 rlineto closepath
fill
137 23 moveto
0 -5 rlineto 5 0 rlineto 0 5 rlineto closepath
fill
147 23 moveto
0 -5 rlineto 5 0 rlineto 0 5 rlineto closepath
fill
152 23 moveto
0 -5 rlineto 5 0 rlineto 0 5 rlineto closepath
fill
172 23 moveto
0 -5 rlineto 5 0 rlineto 0 5 rlineto closepath
fill