%!PS-Adobe-3.0 EPSF-3.0
%%BoundingBox: 0 0 200 200
1 1 1 setrgbcolor
0 200 moveto
0 -200 rlineto 200 0 rlineto 0 200 rlineto closepath
fill
0 0 0 setrgbcolor
12 188 moveto
0 -7 rlineto 7 0 rlineto 0 7 rlineto closepath
fill
19 188 moveto
0 -7 rlineto 7 0 rlineto 0 7 rlineto closepath
fill
26 188 moveto
0 -7 rlineto 7 0 rlineto 0 7 rlineto closepath
fill
33 188 moveto
0 -7 rlineto 7 0 rlineto 0 7 rlineto closepath
fill
40 188 moveto
0 -7 rlineto 7 0 rlineto 0 7 rlineto closepath
fill
47 188 moveto
0 -7 rlineto 7 0 rlineto 0 7 rlineto closepath
fill
54 188 moveto
0 -7 rlineto 7 0 rlineto 0 7 rlineto closepath
fill
68 188 moveto
0 -7 rlineto 7 0 rlineto 0 7 rlineto closepath
fill
82 188 moveto
0 -7 rlineto 7 0 rlineto 0 7 rlineto closepath
fill
96 188 moveto
0 -7 rlineto 7 0 rlineto 0 7 rlineto closepath
fill
110 188 moveto
0 -7 rlineto 7 0 rlineto 0 7 rlineto closepath
fill
124 188 moveto
0 -7 rlineto 7 0 rlineto 0 7 rlineto closepath
fill
138 188 moveto
0 -7 rlineto 7 0 rlineto 0 7 rlineto closepath
fill
145 188 moveto
0 -7 rlineto 7 0 rlineto 0 7 rlineto closepath
fill
152 188 moveto
0 -7 rlineto 7 0 rlineto 0 7 rlineto closepath
fill
159 188 moveto
0 -7 rlineto 7 0 rlineto 0 7 rlineto closepath
fill
166 188 moveto
0 -7 rlineto 7 0 rlineto 0 7 rlineto closepath
fill
173 188 moveto
0 -7 rlineto 7 0 rlineto 0 7 rlineto closepath
fill
180 188 moveto
0 -7 rlineto 7 0 rlineto 0 7 rlineto closepath
fill
12 181 moveto
0 -7 rlineto 7 0 rlineto 0 7 rlineto closepath
fill
54 181 moveto
0 -7 rlineto 7 0 rlineto 0 7 rlineto closepath
fill
75 181 moveto
0 -7 rlineto 7 0 rlineto 0 7 rlineto closepath
fill
82 181 moveto
0 -7 rlineto 7 0 rlineto 0 7 rlineto closepath
fill
89 181 moveto
0 -7 rlineto 7 0 rlineto 0 7 rlineto closepath
fill
96 181 moveto
0 -7 rlineto 7 0 rlineto 0 7 rlineto closepath
fill
138 181 moveto
0 -7 rlineto 7 0 rlineto 0 7 rlineto closepath
fill
180 181 moveto
0 -7 rlineto 7 0 rlineto 0 7 rlineto closepath
fill
12 174 moveto
0 -7 rlineto 7 0 rlineto 0 7 rlineto closepath
fill
26 174 moveto
0 -7 rlineto 7 0 rlineto 0 7 rlineto closepath
fill
33 174 moveto
0 -7 rlineto 7 0 rlineto 0 7 rlineto closepath
fill
40 174 moveto
0 -7 rlineto 7 0 rlineto 0 7 rlineto closepath
fill
54 174 moveto
0 -7 rlineto 7 0 rlineto 0 7 rlineto closepath
fill
68 174 moveto
0 -7 rlineto 7 0 rlineto 0 7 rlineto closepath
fill
75 174 moveto
0 -7 rlineto 7 0 rlineto 0 7 rlineto closepath
fill
82 174 moveto
0 -7 rlineto 7 0 rlineto 0 7 rlineto closepath
fill
103 174 moveto
0 -7 rlineto 7 0 rlineto 0 7 rlineto closepath
fill
110 174 moveto
0 -7 rlineto 7 0 rlineto 0 7 rlineto closepath
fill
124 174 moveto
0 -7 rlineto 7 0 rlineto 0 7 rlineto closepath
fill
138 174 moveto
0 -7 rlineto 7 0 rlineto 0 7 rlineto closepath
fill
152 174 moveto
0 -7 rlineto 7 0 rlineto 0 7 rlineto closepath
fill
159 174 moveto
0 -7 rlineto 7 0 rlineto 0 7 rlineto closepath
fill
166 174 moveto
0 -7 rlineto 7 0 rlineto 0 7 rlineto closepath
fill
180 174 moveto
0 -7 rlineto 7 0 rlineto 0 7 rlineto closepath
fill
12 167 moveto
0 -7 rlineto 7 0 rlineto 0 7 rlineto closepath
fill
26 167 moveto
0 -7 rlineto 7 0 rlineto 0 7 rlineto closepath
fill
33 167 moveto
0 -7 rlineto 7 0 rlineto 0 7 rlineto closepath
fill
40 167 moveto
0 -7 rlineto 7 0 rlineto 0 7 rlineto closepath
fill
54 167 moveto
0 -7 rlineto 7 0 rlineto 0 7 rlineto closepath
fill
68 167 moveto
0 -7 rlineto 7 0 rlineto 0 7 rlineto closepath
fill
75 167 moveto
0 -7 rlineto 7 0 rlineto 0 7 rlineto closepath
fill
82 167 moveto
0 -7 rlineto 7 0 rlineto 0 7 rlineto closepath
fill
96 167 moveto
0 -7 rlineto 7 0 rlineto 0 7 rlineto closepath
fill
103 167 moveto
0 -7 rlineto 7 0 rlineto 0 7 rlineto closepath
fill
110 167 moveto
0 -7 rlineto 7 0 rlineto 0 7 rlineto closepath
fill
117 167 moveto
0 -7 rlineto 7 0 rlineto 0 7 rlineto closepath
fill
124 167 moveto
0 -7 rlineto 7 0 rlineto 0 7 rlineto closepath
fill
138 167 moveto
0 -7 rlineto 7 0 rlineto 0 7 rlineto closepath
fill
152 167 moveto
0 -7 rlineto 7 0 rlineto 0 7 rlineto closepath
fill
159 167 moveto
0 -7 rlineto 7 0 rlineto 0 7 rlineto closepath
fill
166 167 moveto
0 -7 rlineto 7 0 rlineto 0 7 rlineto closepath
fill
180 167 moveto
0 -7 rlineto 7 0 rlineto 0 7 rlineto closepath
fill
12 160 moveto
0 -7 rlineto 7 0 rlineto 0 7 rlineto closepath
fill
26 160 moveto
0 -7 rlineto 7 0 rlineto 0 7 rlineto closepath
fill
33 160 moveto
0 -7 rlineto 7 0 rlineto 0 7 rlineto closepath
fill
40 160 moveto
0 -7 rlineto 7 0 rlineto 0 7 rlineto closepath
fill
54 160 moveto
0 -7 rlineto 7 0 rlineto 0 7 rlineto closepath
fill
68 160 moveto
0 -7 rlineto 7 0 rlineto 0 7 rlineto closepath
fill
89 160 moveto
0 -7 rlineto 7 0 rlineto 0 7 rlineto closepath
fill
96 160 moveto
0 -7 rlineto 7 0 rlineto 0 7 rlineto closepath
fill
117 160 moveto
0 -7 rlineto 7 0 rlineto 0 7 rlineto closepath
fill
124 160 moveto
0 -7 rlineto 7 0 rlineto 0 7 rlineto closepath
fill
138 160 moveto
0 -7 rlineto 7 0 rlineto 0 7 rlineto closepath
fill
152 160 moveto
0 -7 rlineto 7 0 rlineto 0 7 rlineto closepath
fill
159 160 moveto
0 -7 rlineto 7 0 rlineto 0 7 rlineto closepath
fill
166 160 moveto
0 -7 rlineto 7 0 rlineto 0 7 rlineto closepath
fill
180 160 moveto
0 -7 rlineto 7 0 rlineto 0 7 rlineto closepath
fill
12 153 moveto
0 -7 rlineto 7 0 rlineto 0 7 rlineto closepath
fill
54 153 moveto
0 -7 rlineto 7 0 rlineto 0 7 rlineto closepath
fill
82 153 moveto
0 -7 rlineto 7 0 rlineto 0 7 rlineto closepath
fill
89 153 moveto
0 -7 rlineto 7 0 rlineto 0 7 rlineto closepath
fill
138 153 moveto
0 -7 rlineto 7 0 rlineto 0 7 rlineto closepath
fill
180 153 moveto
0 -7 rlineto 7 0 rlineto 0 7 rlineto closepath
fill
12 146 moveto
0 -7 rlineto 7 0 rlineto 0 7 rlineto closepath
fill
19 146 moveto
0 -7 rlineto 7 0 rlineto 0 7 rlineto closepath
fill
26 146 moveto
0 -7 rlineto 7 0 rlineto 0 7 rlineto closepath
fill
33 146 moveto
0 -7 rlineto 7 0 rlineto 0 7 rlineto closepath
fill
40 146 moveto
0 -7 rlineto 7 0 rlineto 0 7 rlineto closepath
fill
47 146 moveto
0 -7 rlineto 7 0 rlineto 0 7 rlineto closepath
fill
54 146 moveto
0 -7 rlineto 7 0 rlineto 0 7 rlineto closepath
fill
68 146 moveto
0 -7 rlineto 7 0 rlineto 0 7 rlineto closepath
fill
82 146 moveto
0 -7 rlineto 7 0 rlineto 0 7 rlineto closepath
fill
96 146 moveto
0 -7 rlineto 7 0 rlineto 0 7 rlineto closepath
fill
110 146 moveto
0 -7 rlineto 7 0 rlineto 0 7 rlineto closepath
fill
124 146 moveto
0 -7 rlineto 7 0 rlineto 0 7 rlineto closepath
fill
138 146 moveto
0 -7 rlineto 7 0 rlineto 0 7 rlineto closepath
fill
145 146 moveto
0 -7 rlineto 7 0 rlineto 0 7 rlineto closepath
fill
152 146 moveto
0 -7 rlineto 7 0 rlineto 0 7 rlineto closepath
fill
159 146 moveto
0 -7 rlineto 7 0 rlineto 0 7 rlineto closepath
fill
166 146 moveto
0 -7 rlineto 7 0 rlineto 0 7 rlineto closepath
fill
173 146 moveto
0 -7 rlineto 7 0 rlineto 0 7 rlineto closepath
fill
180 146 moveto
0 -7 rlineto 7 0 rlineto 0 7 rlineto closepath
fill
82 139 moveto
0 -7 rlineto 7 0 rlineto 0 7 rlineto closepath
fill
96 139 moveto
0 -7 rlineto 7 0 rlineto 0 7 rlineto closepath
fill
124 139 moveto
0 -7 rlineto 7 0 rlineto 0 7 rlineto closepath
fill
12 132 moveto
0 -7 rlineto 7 0 rlineto 0 7 rlineto closepath
fill
19 132 moveto
0 -7 rlineto 7 0 rlineto 0 7 rlineto closepath
fill
26 132 moveto
0 -7 rlineto 7 0 rlineto 0 7 rlineto closepath
fill
33 132 moveto
0 -7 rlineto 7 0 rlineto 0 7 rlineto closepath
fill
54 132 moveto
0 -7 rlineto 7 0 rlineto 0 7 rlineto closepath
fill
68 132 moveto
0 -7 rlineto 7 0 rlineto 0 7 rlineto closepath
fill
82 132 moveto
0 -7 rlineto 7 0 rlineto 0 7 rlineto closepath
fill
89 132 moveto
0 -7 rlineto 7 0 rlineto 0 7 rlineto closepath
fill
96 132 moveto
0 -7 rlineto 7 0 rlineto 0 7 rlineto closepath
fill
117 132 moveto
0 -7 rlineto 7 0 rlineto 0 7 rlineto closepath
fill
124 132 moveto
0 -7 rlineto 7 0 rlineto 0 7 rlineto closepath
fill
131 132 moveto
0 -7 rlineto 7 0 rlineto 0 7 rlineto closepath
fill
152 132 moveto
0 -7 rlineto 7 0 rlineto 0 7 rlineto closepath
fill
159 132 moveto
0 -7 rlineto 7 0 rlineto 0 7 rlineto closepath
fill
166 132 moveto
0 -7 rlineto 7 0 rlineto 0 7 rlineto closepath
fill
180 132 moveto
0 -7 rlineto 7 0 rlineto 0 7 rlineto closepath
fill
26 125 moveto
0 -7 rlineto 7 0 rlineto 0 7 rlineto closepath
fill
33 125 moveto
0 -7 rlineto 7 0 rlineto 0 7 rlineto closepath
fill
40 125 moveto
0 -7 rlineto 7 0 rlineto 0 7 rlineto closepath
fill
47 125 moveto
0 -7 rlineto 7 0 rlineto 0 7 rlineto closepath
fill
82 125 moveto
0 -7 rlineto 7 0 rlineto 0 7 rlineto closepath
fill
96 125 moveto
0 -7 rlineto 7 0 rlineto 0 7 rlineto closepath
fill
103 125 moveto
0 -7 rlineto 7 0 rlineto 0 7 rlineto closepath
fill
124 125 moveto
0 -7 rlineto 7 0 rlineto 0 7 rlineto closepath
fill
131 125 moveto
0 -7 rlineto 7 0 rlineto 0 7 rlineto closepath
fill
145 125 moveto
0 -7 rlineto 7 0 rlineto 0 7 rlineto closepath
fill
173 125 moveto
0 -7 rlineto 7 0 rlineto 0 7 rlineto closepath
fill
12 118 moveto
0 -7 rlineto 7 0 rlineto 0 7 rlineto closepath
fill
19 118 moveto
0 -7 rlineto 7 0 rlineto 0 7 rlineto closepath
fill
33 118 moveto
0 -7 rlineto 7 0 rlineto 0 7 rlineto closepath
fill
40 118 moveto
0 -7 rlineto 7 0 rlineto 0 7 rlineto closepath
fill
47 118 moveto
0 -7 rlineto 7 0 rlineto 0 7 rlineto closepath
fill
54 118 moveto
0 -7 rlineto 7 0 rlineto 0 7 rlineto closepath
fill
61 118 moveto
0 -7 rlineto 7 0 rlineto 0 7 rlineto closepath
fill
75 118 moveto
0 -7 rlineto 7 0 rlineto 0 7 rlineto closepath
fill
82 118 moveto
0 -7 rlineto 7 0 rlineto 0 7 rlineto closepath
fill
89 118 moveto
0 -7 rlineto 7 0 rlineto 0 7 rlineto closepath
fill
96 118 moveto
0 -7 rlineto 7 0 rlineto 0 7 rlineto closepath
fill
103 118 moveto
0 -7 rlineto 7 0 rlineto 0 7 rlineto closepath
fill
124 118 moveto
0 -7 rlineto 7 0 rlineto 0 7 rlineto closepath
fill
145 118 moveto
0 -7 rlineto 7 0 rlineto 0 7 rlineto closepath
fill
33 111 moveto
0 -7 rlineto 7 0 rlineto 0 7 rlineto closepath
fill
40 111 moveto
0 -7 rlineto 7 0 rlineto 0 7 rlineto closepath
fill
47 111 moveto
0 -7 rlineto 7 0 rlineto 0 7 rlineto closepath
fill
61 111 moveto
0 -7 rlineto 7 0 rlineto 0 7 rlineto closepath
fill
75 111 moveto
0 -7 rlineto 7 0 rlineto 0 7 rlineto closepath
fill
82 111 moveto
0 -7 rlineto 7 0 rlineto 0 7 rlineto closepath
fill
103 111 moveto
0 -7 rlineto 7 0 rlineto 0 7 rlineto closepath
fill
124 111 moveto
0 -7 rlineto 7 0 rlineto 0 7 rlineto closepath
fill
131 111 moveto
0 -7 rlineto 7 0 rlineto 0 7 rlineto closepath
fill
138 111 moveto
0 -7 rlineto 7 0 rlineto 0 7 rlineto closepath
fill
159 111 moveto
0 -7 rlineto 7 0 rlineto 0 7 rlineto closepath
fill
166 111 moveto
0 -7 rlineto 7 0 rlineto 0 7 rlineto closepath
fill
12 104 moveto
0 -7 rlineto 7 0 rlineto 0 7 rlineto closepath
fill
26 104 moveto
0 -7 rlineto 7 0 rlineto 0 7 rlineto closepath
fill
47 104 moveto
0 -7 rlineto 7 0 rlineto 0 7 rlineto closepath
fill
54 104 moveto
0 -7 rlineto 7 0 rlineto 0 7 rlineto closepath
fill
68 104 moveto
0 -7 rlineto 7 0 rlineto 0 7 rlineto closepath
fill
75 104 moveto
0 -7 rlineto 7 0 rlineto 0 7 rlineto closepath
fill
82 104 moveto
0 -7 rlineto 7 0 rlineto 0 7 rlineto closepath
fill
96 104 moveto
0 -7 rlineto 7 0 rlineto 0 7 rlineto closepath
fill
103 104 moveto
0 -7 rlineto 7 0 rlineto 0 7 rlineto closepath
fill
110 104 moveto
0 -7 rlineto 7 0 rlineto 0 7 rlineto closepath
fill
117 104 moveto
0 -7 rlineto 7 0 rlineto 0 7 rlineto closepath
fill
138 104 moveto
0 -7 rlineto 7 0 rlineto 0 7 rlineto closepath
fill
145 104 moveto
0 -7 rlineto 7 0 rlineto 0 7 rlineto closepath
fill
152 104 moveto
0 -7 rlineto 7 0 rlineto 0 7 rlineto closepath
fill
166 104 moveto
0 -7 rlineto 7 0 rlineto 0 7 rlineto closepath
fill
173 104 moveto
0 -7 rlineto 7 0 rlineto 0 7 rlineto closepath
fill
180 104 moveto
0 -7 rlineto 7 0 rlineto 0 7 rlineto closepath
fill
19 97 moveto
0 -7 rlineto 7 0 rlineto 0 7 rlineto closepath
fill
33 97 moveto
0 -7 rlineto 7 0 rlineto 0 7 rlineto closepath
fill
47 97 moveto
0 -7 rlineto 7 0 rlineto 0 7 rlineto closepath
fill
75 97 moveto
0 -7 rlineto 7 0 rlineto 0 7 rlineto closepath
fill
89 97 moveto
0 -7 rlineto 7 0 rlineto 0 7 rlineto closepath
fill
96 97 moveto
0 -7 rlineto 7 0 rlineto 0 7 rlineto closepath
fill
103 97 moveto
0 -7 rlineto 7 0 rlineto 0 7 rlineto closepath
fill
110 97 moveto
0 -7 rlineto 7 0 rlineto 0 7 rlineto closepath
fill
117 97 moveto
0 -7 rlineto 7 0 rlineto 0 7 rlineto closepath
fill
124 97 moveto
0 -7 rlineto 7 0 rlineto 0 7 rlineto closepath
fill
131 97 moveto
0 -7 rlineto 7 0 rlineto 0 7 rlineto closepath
fill
138 97 moveto
0 -7 rlineto 7 0 rlineto 0 7 rlineto closepath
fill
145 97 moveto
0 -7 rlineto 7 0 rlineto 0 7 rlineto closepath
fill
152 97 moveto
0 -7 rlineto 7 0 rlineto 0 7 rlineto closepath
fill
180 97 moveto
0 -7 rlineto 7 0 rlineto 0 7 rlineto closepath
fill
19 90 moveto
0 -7 rlineto 7 0 rlineto 0 7 rlineto closepath
fill
26 90 moveto
0 -7 rlineto 7 0 rlineto 0 7 rlineto closepath
fill
33 90 moveto
0 -7 rlineto 7 0 rlineto 0 7 rlineto closepath
fill
47 90 moveto
0 -7 rlineto 7 0 rlineto 0 7 rlineto closepath
fill
54 90 moveto
0 -7 rlineto 7 0 rlineto 0 7 rlineto closepath
fill
61 90 moveto
0 -7 rlineto 7 0 rlineto 0 7 rlineto closepath
fill
75 90 moveto
0 -7 rlineto 7 0 rlineto 0 7 rlineto closepath
fill
89 90 moveto
0 -7 rlineto 7 0 rlineto 0 7 rlineto closepath
fill
110 90 moveto
0 -7 rlineto 7 0 rlineto 0 7 rlineto closepath
fill
131 90 moveto
0 -7 rlineto 7 0 rlineto 0 7 rlineto closepath
fill
138 90 moveto
0 -7 rlineto 7 0 rlineto 0 7 rlineto closepath
fill
152 90 moveto
0 -7 rlineto 7 0 rlineto 0 7 rlineto closepath
fill
166 90 moveto
0 -7 rlineto 7 0 rlineto 0 7 rlineto closepath
fill
173 90 moveto
0 -7 rlineto 7 0 rlineto 0 7 rlineto closepath
fill
12 83 moveto
0 -7 rlineto 7 0 rlineto 0 7 rlineto closepath
fill
68 83 moveto
0 -7 rlineto 7 0 rlineto 0 7 rlineto closepath
fill
75 83 moveto
0 -7 rlineto 7 0 rlineto 0 7 rlineto closepath
fill
82 83 moveto
0 -7 rlineto 7 0 rlineto 0 7 rlineto closepath
fill
89 83 moveto
0 -7 rlineto 7 0 rlineto 0 7 rlineto closepath
fill
145 83 moveto
0 -7 rlineto 7 0 rlineto 0 7 rlineto closepath
fill
159 83 moveto
0 -7 rlineto 7 0 rlineto 0 7 rlineto closepath
fill
180 83 moveto
0 -7 rlineto 7 0 rlineto 0 7 rlineto closepath
fill
26 76 moveto
0 -7 rlineto 7 0 rlineto 0 7 rlineto closepath
fill
33 76 moveto
0 -7 rlineto 7 0 rlineto 0 7 rlineto closepath
fill
40 76 moveto
0 -7 rlineto 7 0 rlineto 0 7 rlineto closepath
fill
47 76 moveto
0 -7 rlineto 7 0 rlineto 0 7 rlineto closepath
fill
54 76 moveto
0 -7 rlineto 7 0 rlineto 0 7 rlineto closepath
fill
68 76 moveto
0 -7 rlineto 7 0 rlineto 0 7 rlineto closepath
fill
82 76 moveto
0 -7 rlineto 7 0 rlineto 0 7 rlineto closepath
fill
96 76 moveto
0 -7 rlineto 7 0 rlineto 0 7 rlineto closepath
fill
103 76 moveto
0 -7 rlineto 7 0 rlineto 0 7 rlineto closepath
fill
117 76 moveto
0 -7 rlineto 7 0 rlineto 0 7 rlineto closepath
fill
124 76 moveto
0 -7 rlineto 7 0 rlineto 0 7 rlineto closepath
fill
131 76 moveto
0 -7 rlineto 7 0 rlineto 0 7 rlineto closepath
fill
138 76 moveto
0 -7 rlineto 7 0 rlineto 0 7 rlineto closepath
fill
145 76 moveto
0 -7 rlineto 7 0 rlineto 0 7 rlineto closepath
fill
152 76 moveto
0 -7 rlineto 7 0 rlineto 0 7 rlineto closepath
fill
159 76 moveto
0 -7 rlineto 7 0 rlineto 0 7 rlineto closepath
fill
166 76 moveto
0 -7 rlineto 7 0 rlineto 0 7 rlineto closepath
fill
173 76 moveto
0 -7 rlineto 7 0 rlineto 0 7 rlineto closepath
fill
180 76 moveto
0 -7 rlineto 7 0 rlineto 0 7 rlineto closepath
fill
68 69 moveto
0 -7 rlineto 7 0 rlineto 0 7 rlineto closepath
fill
75 69 moveto
0 -7 rlineto 7 0 rlineto 0 7 rlineto closepath
fill
103 69 moveto
0 -7 rlineto 7 0 rlineto 0 7 rlineto closepath
fill
124 69 moveto
0 -7 rlineto 7 0 rlineto 0 7 rlineto closepath
fill
152 69 moveto
0 -7 rlineto 7 0 rlineto 0 7 rlineto closepath
fill
180 69 moveto
0 -7 rlineto 7 0 rlineto 0 7 rlineto closepath
fill
12 62 moveto
0 -7 rlineto 7 0 rlineto 0 7 rlineto closepath
fill
19 62 moveto
0 -7 rlineto 7 0 rlineto 0 7 rlineto closepath
fill
26 62 moveto
0 -7 rlineto 7 0 rlineto 0 7 rlineto closepath
fill
33 62 moveto
0 -7 rlineto 7 0 rlineto 0 7 rlineto closepath
fill
40 62 moveto
0 -7 rlineto 7 0 rlineto 0 7 rlineto closepath
fill
47 62 moveto
0 -7 rlineto 7 0 rlineto 0 7 rlineto closepath
fill
54 62 moveto
0 -7 rlineto 7 0 rlineto 0 7 rlineto closepath
fill
82 62 moveto
0 -7 rlineto 7 0 rlineto 0 7 rlineto closepath
fill
110 62 moveto
0 -7 rlineto 7 0 rlineto 0 7 rlineto closepath
fill
124 62 moveto
0 -7 rlineto 7 0 rlineto 0 7 rlineto closepath
fill
138 62 moveto
0 -7 rlineto 7 0 rlineto 0 7 rlineto closepath
fill
152 62 moveto
0 -7 rlineto 7 0 rlineto 0 7 rlineto closepath
fill
159 62 moveto
0 -7 rlineto 7 0 rlineto 0 7 rlineto closepath
fill
166 62 moveto
0 -7 rlineto 7 0 rlineto 0 7 rlineto closepath
fill
173 62 moveto
0 -7 rlineto 7 0 rlineto 0 7 rlineto closepath
fill
180 62 moveto
0 -7 rlineto 7 0 rlineto 0 7 rlineto closepath
fill
12 55 moveto
0 -7 rlineto 7 0 rlineto 0 7 rlineto closepath
fill
54 55 moveto
0 -7 rlineto 7 0 rlineto 0 7 rlineto closepath
fill
82 55 moveto
0 -7 rlineto 7 0 rlineto 0 7 rlineto closepath
fill
89 55 moveto
0 -7 rlineto 7 0 rlineto 0 7 rlineto closepath
fill
117 55 moveto
0 -7 rlineto 7 0 rlineto 0 7 rlineto closepath
fill
124 55 moveto
0 -7 rlineto 7 0 rlineto 0 7 rlineto closepath
fill
152 55 moveto
0 -7 rlineto 7 0 rlineto 0 7 rlineto closepath
fill
180 55 moveto
0 -7 rlineto 7 0 rlineto 0 7 rlineto closepath
fill
12 48 moveto
0 -7 rlineto 7 0 rlineto 0 7 rlineto closepath
fill
26 48 moveto
0 -7 rlineto 7 0 rlineto 0 7 rlineto closepath
fill
33 48 moveto
0 -7 rlineto 7 0 rlineto 0 7 rlineto closepath
fill
40 48 moveto
0 -7 rlineto 7 0 rlineto 0 7 rlineto closepath
fill
54 48 moveto
0 -7 rlineto 7 0 rlineto 0 7 rlineto closepath
fill
82 48 moveto
0 -7 rlineto 7 0 rlineto 0 7 rlineto closepath
fill
110 48 moveto
0 -7 rlineto 7 0 rlineto 0 7 rlineto closepath
fill
124 48 moveto
0 -7 rlineto 7 0 rlineto 0 7 rlineto closepath
fill
131 48 moveto
0 -7 rlineto 7 0 rlineto 0 7 rlineto closepath
fill
138 48 moveto
0 -7 rlineto 7 0 rlineto 0 7 rlineto closepath
fill
145 48 moveto
0 -7 rlineto 7 0 rlineto 0 7 rlineto closepath
fill
152 48 moveto
0 -7 rlineto 7 0 rlineto 0 7 rlineto closepath
fill
173 48 moveto
0 -7 rlineto 7 0 rlineto 0 7 rlineto closepath
fill
12 41 moveto
0 -7 rlineto 7 0 rlineto 0 7 rlineto closepath
fill
26 41 moveto
0 -7 rlineto 7 0 rlineto 0 7 rlineto closepath
fill
33 41 moveto
0 -7 rlineto 7 0 rlineto 0 7 rlineto closepath
fill
40 41 moveto
0 -7 rlineto 7 0 rlineto 0 7 rlineto closepath
fill
54 41 moveto
0 -7 rlineto 7 0 rlineto 0 7 rlineto closepath
fill
68 41 moveto
0 -7 rlineto 7 0 rlineto 0 7 rlineto closepath
fill
75 41 moveto
0 -7 rlineto 7 0 rlineto 0 7 rlineto closepath
fill
110 41 moveto
0 -7 rlineto 7 0 rlineto 0 7 rlineto closepath
fill
131 41 moveto
0 -7 rlineto 7 0 rlineto 0 7 rlineto closepath
fill
138 41 moveto
0 -7 rlineto 7 0 rlineto 0 7 rlineto closepath
fill
145 41 moveto
0 -7 rlineto 7 0 rlineto 0 7 rlineto closepath
fill
152 41 moveto
0 -7 rlineto 7 0 rlineto 0 7 rlineto closepath
fill
166 41 moveto
0 -7 rlineto 7 0 rlineto 0 7 rlineto closepath
fill
173 41 moveto
0 -7 rlineto 7 0 rlineto 0 7 rlineto closepath
fill
180 41 moveto
0 -7 rlineto 7 0 rlineto 0 7 rlineto closepath
fill
12 34 moveto
0 -7 rlineto 7 0 rlineto 0 7 rlineto closepath
fill
26 34 moveto
0 -7 rlineto 7 0 rlineto 0 7 rlineto closepath
fill
33 34 moveto
0 -7 rlineto 7 0 rlineto 0 7 rlineto closepath
fill
40 34 moveto
0 -7 rlineto 7 0 rlineto 0 7 rlineto closepath
fill
54 34 moveto
0 -7 rlineto 7 0 rlineto 0 7 rlineto closepath
fill
68 34 moveto
0 -7 rlineto 7 0 rlineto 0 7 rlineto closepath
fill
117 34 moveto
0 -7 rlineto 7 0 rlineto 0 7 rlineto closepath
fill
124 34 moveto
0 -7 rlineto 7 0 rlineto 0 7 rlineto closepath
fill
131 34 moveto
0 -7 rlineto 7 0 rlineto 0 7 rlineto closepath
fill
138 34 moveto
0 -7 rlineto 7 0 rlineto 0 7 rlineto closepath
fill
145 34 moveto
0 -7 rlineto 7 0 rlineto 0 7 rlineto closepath
fill
152 34 moveto
0 -7 rlineto 7 0 rlineto 0 7 rlineto closepath
fill
159 34 moveto
0 -7 rlineto 7 0 rlineto 0 7 rlineto closepath
fill
166 34 moveto
0 -7 rlineto 7 0 rlineto 0 7 rlineto closepath
fill
173 34 moveto
0 -7 rlineto 7 0 rlineto 0 7 rlineto closepath
fill
12 27 moveto
0 -7 rlineto 7 0 rlineto 0 7 rlineto closepath
fill
54 27 moveto
0 -7 rlineto 7 0 rlineto 0 7 rlineto closepath
fill
68 27 moveto
0 -7 rlineto 7 0 rlineto 0 7 rlineto closepath
fill
89 27 moveto
0 -7 rlineto 7 0 rlineto 0 7 rlineto closepath
fill
96 27 moveto
0 -7 rlineto 7 0 rlineto 0 7 rlineto closepath
fill
103 27 moveto
0 -7 rlineto 7 0 rlineto 0 7 rlineto closepath
fill
131 27 moveto
0 -7 rlineto 7 0 rlineto 0 7 rlineto closepath
fill
152 27 moveto
0 -7 rlineto 7 0 rlineto 0 7 rlineto closepath
fill
166 27 moveto
0 -7 rlineto 7 0 rlineto 0 7 rlineto closepath
fill
12 20 moveto
0 -7 rlineto 7 0 rlineto 0 7 rlineto closepath
fill
19 20 moveto
0 -7 rlineto 7 0 rlineto 0 7 rlineto closepath
fill
26 20 moveto
0 -7 rlineto 7 0 rlineto 0 7 rlineto closepath
fill
33 20 moveto
0 -7 rlineto 7 0 rlineto 0 7 rlineto closepath
fill
40 20 moveto
0 -7 rlineto 7 0 rlineto 0 7 rlineto closepath
fill
47 20 moveto
0 -7 rlineto 7 0 rlineto 0 7 rlineto closepath
fill
54 20 moveto
0 -7 rlineto 7 0 rlineto 0 7 rlineto closepath
fill
68 20 moveto
0 -7 rlineto 7 0 rlineto 0 7 rlineto closepath
fill
75 20 moveto
0 -7 rlineto 7 0 rlineto 0 7 rlineto closepath
fill
89 20 moveto
0 -7 rlineto 7 0 rlineto 0 7 rlineto closepath
fill
96 20 moveto
0 -7 rlineto 7 0 rlineto 0 7 rlineto closepath
fill
117 20 moveto
0 -7 rlineto 7 0 rlineto 0 7 rlineto closepath
fill
131 20 moveto
0 -7 rlineto 7 0 rlineto 0 7 rlineto closepath
fill
138 20 moveto
0 -7 rlineto 7 0 rlineto 0 7 rlineto closepath
fill
145 20 moveto
0 -7 rlineto 7 0 rlineto 0 7 rlineto closepath
fill
152 20 moveto
0 -7 rlineto 7 0 rlineto 0 7 rlineto closepath
fill
159 20 moveto
0 -7 rlineto 7 0 rlineto 0 7 rlineto closepath
fill
166 20 moveto
0 -7 rlineto 7 0 rlineto 0 7 rlineto closepath
fill
173 20 moveto
0 -7 rlineto 7 0 rlineto 0 7 rlineto closepath
fill
180 20 moveto
0 -7 rlineto 7 0 rlineto 0 7 rlineto closepath
fill